tb/sim/sim_VCDParser_tb.vcd
$date
   Apr 20, 2012 19:07:21
$end
$version
   ChipScope Pro Analyzer  13.4 O.87xd (Build 13400.12.7.126)
$end
$timescale
    1ns
$end

$scope module sim_vcd_example_tb $end
$var wire  1  n0 ack $end
$var wire  1  n1 sof $end
$var wire  1  n2 eof $end
$var wire  8  n3 data $end
$var wire  1  n4 valid $end
$upscope $end
$enddefinitions $end

#0
0n0
0n1
0n2
b0 n3
0n4
#2
1n0
#4
1n1
b1 n3
1n4
#5
0n1
b10 n3
#6
b11 n3
#7
b100 n3
#8
b101 n3
#9
0n0
#12
1n0
b110 n3
#13
b111 n3
#14
1n2
b1000 n3
#15
0n2
b0 n3
0n4
#16
0n0
